…
# Assuming 'climate' is your original data frame

# Create a new data frame with total precipitation for each year
total_precip_year <- climate %>%
  filter(year != 2022, state %in% c(1, 2, 3)) %>%
  group_by(year) %>%
  summarize(Total_Precipitation = sum(January, February, March, April, May, June, July, August, September, October, November, December))

# Print or view the new data frame
print(total_precip_year)
```

    ## # A tibble: 127 × 2
    ##     year Total_Precipitation
    ##    <dbl>               <dbl>
    ##  1  1895               6914.
    ##  2  1896               6146.
    ##  3  1897               6770.
    ##  4  1898               7611.
    ##  5  1899               6488.
    ##  6  1900               8049.
    ##  7  1901               6641.
    ##  8  1902               7463.
    ##  9  1903               6934.
    ## 10  1904               6073.
    ## # ℹ 117 more rows
…
    ## `summarise()` has grouped output by 'state'. You can override using the
    ## `.groups` argument.

``` r
cumulative_prec_mo2 <- cumulative_prec_mo %>%
  rowwise() %>%
  mutate(Annual_sum = sum(January_sum:December_sum))

cumulative_prec_year = cumulative_prec_mo2 %>%
  select(state, year, Annual_sum) %>%
  filter(state %in% c(1, 2), year != 2022)
cumulative_prec_year
```

    ## # A tibble: 254 × 3
    ## # Rowwise:  state
    ##    state  year Annual_sum
    ##    <dbl> <dbl>      <dbl>
    ##  1     1  1895     88118.
    ##  2     1  1896     35662.
    ##  3     1  1897     36470.
    ##  4     1  1898      3399.
    ##  5     1  1899     20622.
    ##  6     1  1900     33858.
    ##  7     1  1901     71097.
    ##  8     1  1902     37263.
    ##  9     1  1903      6796.
    ## 10     1  1904      6454.
    ## # ℹ 244 more rows
…
Plot 3: Overlaid Line plots Comparing Annual Precipitation in Georgia
and Kansas (1990-2021)

``` r
cumulative_prec_mo2
```

    ## # A tibble: 6,242 × 15
    ## # Rowwise:  state
    ##    state  year January_sum February_sum March_sum April_sum May_sum June_sum
    ##    <dbl> <dbl>       <dbl>        <dbl>     <dbl>     <dbl>   <dbl>    <dbl>
    ##  1     1  1895        506.         176.      514.      238.   254.     365. 
    ##  2     1  1896        289.         414.      362.      236.   217.     349. 
    ##  3     1  1897        244.         424.      729.      277.   108.     131. 
    ##  4     1  1898        267.         133.      214.      304.    64.9    246. 
    ##  5     1  1899        415.         435.      435.      173.   136.     184. 
    ##  6     1  1900        220.         582.      398.      578.   172.     672. 
    ##  7     1  1901        337.         297.      432.      342.   365.     220. 
    ##  8     1  1902        248.         467.      639.      157.   164.      95.6
    ##  9     1  1903        241.         712.      377.      190.   425.     318. 
    ## 10     1  1904        283.         274.      255.      157.   201.     215. 
    ## # ℹ 6,232 more rows
    ## # ℹ 7 more variables: July_sum <dbl>, August_sum <dbl>, September_sum <dbl>,
    ## #   October_sum <dbl>, November_sum <dbl>, December_sum <dbl>, Annual_sum <dbl>

``` r
cumulative_prec_year2 = cumulative_prec_mo2 %>%
  select(state, year, Annual_sum) %>%
  filter(state %in% c(9, 14), year != 2022)
cumulative_prec_year2
```

    ## # A tibble: 254 × 3
    ## # Rowwise:  state
    ##    state  year Annual_sum
    ##    <dbl> <dbl>      <dbl>
    ##  1     9  1895    730198.
    ##  2     9  1896     74383.
    ##  3     9  1897     68730.
    ##  4     9  1898    103215.
    ##  5     9  1899    312469.
    ##  6     9  1900    287863.
    ##  7     9  1901    133290.
    ##  8     9  1902    213595.
    ##  9     9  1903     69166.
    ## 10     9  1904     27233.
    ## # ℹ 244 more rows
…
Plot 6: Line plot of five states in the same region from 2017 to 2021
with a line graph (a particularly rainy subset)

``` r
cumulative_prec_mo2 <- cumulative_prec_mo %>%
  rowwise() %>%
  mutate(Annual_sum = sum(January_sum:December_sum))

cumulative_prec_year2 = cumulative_prec_mo2 %>%
  select(state, year, Annual_sum) %>%
  filter(state %in% c(8, 1, 16, 38, 9, 40, 26, 42, 2, 5), year != 2022)
cumulative_prec_year2
```

    ## # A tibble: 1,270 × 3
    ## # Rowwise:  state
    ##    state  year Annual_sum
    ##    <dbl> <dbl>      <dbl>
    ##  1     1  1895     88118.
    ##  2     1  1896     35662.
    ##  3     1  1897     36470.
    ##  4     1  1898      3399.
    ##  5     1  1899     20622.
    ##  6     1  1900     33858.
    ##  7     1  1901     71097.
    ##  8     1  1902     37263.
    ##  9     1  1903      6796.
    ## 10     1  1904      6454.
    ## # ℹ 1,260 more rows
…
Plot 7: Boxplot comparison of Southeast and Southwest regions of the US
from 2017 to 2021

``` r
library(ggridges)
library(dplyr)

# Assuming you have a data frame named `precipitation_data` with columns like "State" and "Precipitation"
# Assuming you have a mapping of states to regions in a data frame named `state_region_mapping`

cumulative_prec_mo2
```

    ## # A tibble: 6,242 × 15
    ## # Rowwise:  state
    ##    state  year January_sum February_sum March_sum April_sum May_sum June_sum
    ##    <dbl> <dbl>       <dbl>        <dbl>     <dbl>     <dbl>   <dbl>    <dbl>
    ##  1     1  1895        506.         176.      514.      238.   254.     365. 
    ##  2     1  1896        289.         414.      362.      236.   217.     349. 
    ##  3     1  1897        244.         424.      729.      277.   108.     131. 
    ##  4     1  1898        267.         133.      214.      304.    64.9    246. 
    ##  5     1  1899        415.         435.      435.      173.   136.     184. 
    ##  6     1  1900        220.         582.      398.      578.   172.     672. 
    ##  7     1  1901        337.         297.      432.      342.   365.     220. 
    ##  8     1  1902        248.         467.      639.      157.   164.      95.6
    ##  9     1  1903        241.         712.      377.      190.   425.     318. 
    ## 10     1  1904        283.         274.      255.      157.   201.     215. 
    ## # ℹ 6,232 more rows
    ## # ℹ 7 more variables: July_sum <dbl>, August_sum <dbl>, September_sum <dbl>,
    ## #   October_sum <dbl>, November_sum <dbl>, December_sum <dbl>, Annual_sum <dbl>
…
#Add name column
cumulative_prec_mo2$name <- c("Alabama", "Arizona", "Arkansas", "California", "Colorado", "Connecticut", "Delaware", "Florida", "Georgia", "Idaho", "Illinois", "Indiana", "Iowa", "Kansas", "Kentucky", "Louisiana", "Maine", "Maryland", "Massachusetts", "Michigan", "Minnesota", "Mississippi", "Missouri", "Montana", "Nebraska", "Nevada", "New Hampshire", "New Jersey", "New Mexico", "New York", "North Carolina", "North Dakota", "Ohio", "Oklahoma", "Oregon", "Pennsylvania", "Rhode Island", "South Carolina", "South Dakota", "Tennessee", "Texas", "Utah", "Vermont", "Virginia", "Washington", "West Virginia", "Wisconsin", "Wyoming", "Alaska")

# Merge the cumulative_prec_mo2 data with U.S. states data
#us_states <- merge(us_states, my_data, by.x = "name", by.y = "State", all.x = TRUE)

#us_states %>% select(name, Category)
cumulative_prec_mo2 %>% select(name, Category)
```

    ## Adding missing grouping variables: `year`

    ## # A tibble: 49 × 3
    ## # Rowwise:  year
    ##     year name        Category
    ##    <dbl> <chr>       <fct>   
    ##  1  2017 Alabama     High    
    ##  2  2017 Arizona     Low     
    ##  3  2017 Arkansas    High    
    ##  4  2017 California  High    
    ##  5  2017 Colorado    Moderate
    ##  6  2017 Connecticut Low     
    ##  7  2017 Delaware    Low     
    ##  8  2017 Florida     High    
    ##  9  2017 Georgia     High    
    ## 10  2017 Idaho       Moderate
    ## # ℹ 39 more rows
…
``` r
cumulative_prec %>% arrange(desc(Total_Precip))
```

    ## # A tibble: 49 × 14
    ##    state January_sum February_sum March_sum April_sum May_sum June_sum July_sum
    ##    <dbl>       <dbl>        <dbl>     <dbl>     <dbl>   <dbl>    <dbl>    <dbl>
    ##  1     9       4086.        3977.     3108.     3759.   3337.    4307.    4072.
    ##  2    41       2409.        2419.     2795.     3328.   5613.    4451.    3275.
    ##  3    15       2381.        3690.     3206.     2625.   2976.    3521.    3108.
    ##  4    44       2203.        2599.     2125.     2806.   3320.    3218.    3105.
    ##  5    40       2134.        3737.     3202.     2638.   2235.    2379.    2335.
    ##  6    31       2090.        2345.     1889.     2460.   2568.    2575.    2541.
    ##  7    22       2358.        2928.     2236.     2885.   2054.    2847.    2427.
    ##  8    23       1605.        1422.     2553.     2637.   3596.    2655.    2426.
    ##  9    11       1434.        1355.     2055.     2212.   2720.    2395.    2253.
    ## 10     3       1537.        2355.     2070.     2533.   2474.    1708.    1587.
    ## # ℹ 39 more rows
    ## # ℹ 6 more variables: August_sum <dbl>, September_sum <dbl>, October_sum <dbl>,
    ## #   November_sum <dbl>, December_sum <dbl>, Total_Precip <dbl>
…
Lowest: As stated before, I calculated the total cumulative
precipitation from 2017 to 2021 for each state. The order of states with
the lowest precipitation measurements for this metric were 7, 2, 26, 37,
48, 6, 29.

I also calculated the average precipitation for per year over the period
from 2017 to 2021 for each state. \_\_\_\_

``` r
cumulative_prec %>% arrange(Total_Precip)
```

    ## # A tibble: 49 × 14
    ##    state January_sum February_sum March_sum April_sum May_sum June_sum July_sum
    ##    <dbl>       <dbl>        <dbl>     <dbl>     <dbl>   <dbl>    <dbl>    <dbl>
    ##  1     7        43.6         55.5      60.9      47.8    67.8     52.6     86.2
    ##  2     2        88           98.8      72.3      13.2    18.6     12.5    181. 
    ##  3    26       141.         114.      126.       71.7    92.6     25.7     38.4
    ##  4    37       104.          93.9     101.      139.    104.      80.3     93.7
    ##  5    48       108.         153.      156.      202.    285.     178.     143. 
    ##  6     6       141.         134.      130.      207.    168.     122.     210. 
    ##  7    29       113.         100.      119.       89.9   129.     165.     407. 
    ##  8    42       258.         244.      291.      198.    186.      74.5    143. 
    ##  9    27       167.         157.      124.      238.    179.     184.     282. 
    ## 10    43       222.         194.      181.      307.    260.     296.     318. 
    ## # ℹ 39 more rows
    ## # ℹ 6 more variables: August_sum <dbl>, September_sum <dbl>, October_sum <dbl>,
    ## #   November_sum <dbl>, December_sum <dbl>, Total_Precip <dbl>
…
``` r
summarized_data <- climate_recent %>%
  group_by(year, state) %>%
  summarize(Total_Precipitation = sum(January, na.rm = TRUE))
```

    ## `summarise()` has grouped output by 'year'. You can override using the
    ## `.groups` argument.

``` r
summarized_data
```

    ## # A tibble: 245 × 3
    ## # Groups:   year [5]
    ##     year state Total_Precipitation
    ##    <dbl> <dbl>               <dbl>
    ##  1  2017     1              607.  
    ##  2  2017     2               30.1 
    ##  3  2017     3              225.  
    ##  4  2017     4              757.  
    ##  5  2017     5              156.  
    ##  6  2017     6               28.6 
    ##  7  2017     7                8.59
    ##  8  2017     8              264.  
    ##  9  2017     9             1237.  
    ## 10  2017    10              149.  
    ## # ℹ 235 more rows
…
    ## `summarise()` has grouped output by 'state'. You can override using the
    ## `.groups` argument.

``` r
head(result, 200)
```

    ## # A tibble: 200 × 14
    ## # Groups:   state [2]
    ##    state  year January February March April   May  June  July August September
    ##    <dbl> <dbl>   <dbl>    <dbl> <dbl> <dbl> <dbl> <dbl> <dbl>  <dbl>     <dbl>
    ##  1     1  1895    506.     176.  514.  238. 254.  365.   293.   340.     105. 
    ##  2     1  1896    289.     414.  362.  236. 217.  349.   343.   181.     121. 
    ##  3     1  1897    244.     424.  729.  277. 108.  131.   311.   379.      47.7
    ##  4     1  1898    267.     133.  214.  304.  64.9 246.   405.   477.     211. 
    ##  5     1  1899    415.     435.  435.  173. 136.  184.   447.   254.      37.2
    ##  6     1  1900    220.     582.  398.  578. 172.  672.   320.   198.     266. 
    ##  7     1  1901    337.     297.  432.  342. 365.  220.   228.   597.     309. 
    ##  8     1  1902    248.     467.  639.  157. 164.   95.6  188.   245.     279. 
    ##  9     1  1903    241.     712.  377.  190. 425.  318.   289.   296.     109. 
    ## 10     1  1904    283.     274.  255.  157. 201.  215.   329.   388.      79.1
    ## # ℹ 190 more rows
    ## # ℹ 3 more variables: October <dbl>, November <dbl>, December <dbl>
…
Filter for 2017 to 2021

``` r
result3 <- climate_recent %>% group_by(state) %>% summarize(January_mean = mean(January), February_mean = mean(February), March_mean = mean(March), April_mean = mean(April), May_mean = mean(May), June_mean = mean(June), July_mean = mean(July), August_mean = mean(August), September_mean = mean(September), October_mean = mean(October), November_mean = mean(November), December_mean = mean(December))
result3
```

    ## # A tibble: 49 × 13
    ##    state January_mean February_mean March_mean April_mean May_mean June_mean
    ##    <dbl>        <dbl>         <dbl>      <dbl>      <dbl>    <dbl>     <dbl>
    ##  1     1         5.76          6.47      5.29       5.75     4.89      6.56 
    ##  2     2         1.17          1.32      0.964      0.176    0.248     0.167
    ##  3     3         4.10          6.28      5.52       6.76     6.60      4.55 
    ##  4     4         6.28          4.89      4.22       2.13     1.17      0.162
    ##  5     5         1.25          1.26      1.79       1.44     2.34      1.17 
    ##  6     6         3.52          3.34      3.24       5.18     4.21      3.06 
    ##  7     7         2.91          3.70      4.06       3.18     4.52      3.51 
    ##  8     8         2.94          2.92      1.62       3.74     4.48      8.39 
    ##  9     9         5.14          5.00      3.91       4.73     4.20      5.42 
    ## 10    10         2.80          3.11      2.12       2.03     2.02      1.40 
    ## # ℹ 39 more rows
    ## # ℹ 6 more variables: July_mean <dbl>, August_mean <dbl>, September_mean <dbl>,
    ## #   October_mean <dbl>, November_mean <dbl>, December_mean <dbl>

``` r
#now find the max for each state 
result4 <- result3%>%
  group_by(state) %>%
  summarize(Max_Precipitation = max(c_across(matches("Jan|Feb|Mar|Apr|May|Jun|Jul|Aug|Sep|Oct|Nov|Dec")), na.rm = TRUE))
result4
```

    ## # A tibble: 49 × 2
    ##    state Max_Precipitation
    ##    <dbl>             <dbl>
    ##  1     1              6.56
    ##  2     2              2.41
    ##  3     3              6.76
    ##  4     4              6.28
    ##  5     5              2.34
    ##  6     6              6.36
    ##  7     7              5.89
    ##  8     8              8.39
    ##  9     9              5.65
    ## 10    10              3.11
    ## # ℹ 39 more rows

``` r
#Arrange in descending order (highest to lowest)
result4 %>% arrange(desc(Max_Precipitation))
```

    ## # A tibble: 49 × 2
    ##    state Max_Precipitation
    ##    <dbl>             <dbl>
    ##  1    50              9.20
    ##  2     8              8.39
    ##  3    40              7.87
    ##  4    16              7.33
    ##  5    45              7.22
    ##  6    22              7.14
    ##  7    35              6.80
    ##  8     3              6.76
    ##  9     1              6.56
    ## 10    28              6.53
    ## # ℹ 39 more rows

``` r
#Arrange in ascending order (lowest to highest)
result4 %>% arrange(Max_Precipitation)
```

    ## # A tibble: 49 × 2
    ##    state Max_Precipitation
    ##    <dbl>             <dbl>
    ##  1    26              1.66
    ##  2    42              2.01
    ##  3     5              2.34
    ##  4     2              2.41
    ##  5    29              2.47
    ##  6    24              2.47
    ##  7    48              2.48
    ##  8    32              2.98
    ##  9    10              3.11
    ## 10    39              3.53
    ## # ℹ 39 more rows
…
